0000.003 (0) Opened log file at time: Fri, 04 Dec 2015 06:33:18 +0000 on http://charmcat.net
0000.013 (0) UpdraftPlus WordPress backup plugin (https://updraftplus.com): 1.11.18 WP: 4.3.1 PHP: 5.5.9-1ubuntu4.14 (Linux pod-42830 3.13.0-65-generic #106-Ubuntu SMP Fri Oct 2 22:08:27 UTC 2015 x86_64) MySQL: 5.6.27 Server: Apache safe_mode: 0 max_execution_time: 900 memory_limit: 512M (used: 77.5M | 78.5M) multisite: N mcrypt: Y LANG: C ZipArchive::addFile: Y
0000.020 (0) Free space on disk containing Updraft's temporary directory: Unknown
0000.028 (0) Tasks: Backup files:  (schedule: weekly) Backup DB: 1 (schedule: daily)
0000.034 (0) Processed schedules. Tasks now: Backup files:  Backup DB: 1
0000.047 (0) Requesting semaphore lock (d)
0000.056 (0) Semaphore (d) was stuck, set lock time to 2015-12-04 06:33:18
0000.063 (0) Semaphore (d) reset to 1
0000.070 (0) Set semaphore last lock (d) time to 2015-12-04 06:33:18
0000.076 (0) Semaphore lock (d) complete
0000.095 (0) Backup run: resumption=0, nonce=13f9a8832008, begun at=1449210798 (0s ago), job type=backup
0000.110 (0) Scheduling a resumption (1) after 300 seconds (1449211098) in case this run gets aborted
0000.136 (0) This backup run is not intended for files - skipping
0000.144 (0) Beginning creation of database dump (WordPress DB)
0000.187 (0) Table wp_options: Total expected rows (approximate): 1500
0000.261 (0) Table wp_options: Total rows added: 1454 in 0.07 seconds
0000.272 (0) Table wp_options: finishing file (backup_2015-12-04-0133_CharmCat_13f9a8832008-db-table-wp_options.table.gz - 174 Kb)
0000.306 (0) Table wp_users: Total expected rows (approximate): 12
0000.317 (0) Table wp_users: Total rows added: 13 in 0.00 seconds
0000.325 (0) Table wp_users: finishing file (backup_2015-12-04-0133_CharmCat_13f9a8832008-db-table-wp_users.table.gz - 1.3 Kb)
0000.348 (0) Table wp_usermeta: Total expected rows (approximate): 467
0000.366 (0) Table wp_usermeta: Total rows added: 478 in 0.01 seconds
0000.374 (0) Table wp_usermeta: finishing file (backup_2015-12-04-0133_CharmCat_13f9a8832008-db-table-wp_usermeta.table.gz - 10.5 Kb)
0000.396 (0) Table wp_commentmeta: Total expected rows (approximate): 96
0000.409 (0) Table wp_commentmeta: Total rows added: 96 in 0.01 seconds
0000.419 (0) Table wp_commentmeta: finishing file (backup_2015-12-04-0133_CharmCat_13f9a8832008-db-table-wp_commentmeta.table.gz - 6.2 Kb)
0000.442 (0) Table wp_comments: Total expected rows (approximate): 39
0000.455 (0) Table wp_comments: Total rows added: 39 in 0.01 seconds
0000.463 (0) Table wp_comments: finishing file (backup_2015-12-04-0133_CharmCat_13f9a8832008-db-table-wp_comments.table.gz - 7.5 Kb)
0000.485 (0) Table wp_links: Total expected rows (approximate): 11
0000.499 (0) Table wp_links: Total rows added: 11 in 0.00 seconds
0000.508 (0) Table wp_links: finishing file (backup_2015-12-04-0133_CharmCat_13f9a8832008-db-table-wp_links.table.gz - 1.3 Kb)
0000.537 (0) Table wp_postmeta: Total expected rows (approximate): 29806
0002.071 (0) Table wp_postmeta: Total rows added: 32474 in 1.52 seconds
0002.079 (0) Table wp_postmeta: finishing file (backup_2015-12-04-0133_CharmCat_13f9a8832008-db-table-wp_postmeta.table.gz - 427 Kb)
0002.102 (0) Table wp_posts: Total expected rows (approximate): 2474
0002.351 (0) Table wp_posts: Total rows added: 2405 in 0.24 seconds
0002.359 (0) Table wp_posts: finishing file (backup_2015-12-04-0133_CharmCat_13f9a8832008-db-table-wp_posts.table.gz - 179 Kb)
0002.386 (0) Table wp_term_relationships: Total expected rows (approximate): 3394
0002.440 (0) Table wp_term_relationships: Total rows added: 3394 in 0.05 seconds
0002.449 (0) Table wp_term_relationships: finishing file (backup_2015-12-04-0133_CharmCat_13f9a8832008-db-table-wp_term_relationships.table.gz - 9.3 Kb)
0002.472 (0) Table wp_term_taxonomy: Total expected rows (approximate): 596
0002.498 (0) Table wp_term_taxonomy: Total rows added: 596 in 0.02 seconds
0002.506 (0) Table wp_term_taxonomy: finishing file (backup_2015-12-04-0133_CharmCat_13f9a8832008-db-table-wp_term_taxonomy.table.gz - 6.6 Kb)
0002.530 (0) Table wp_terms: Total expected rows (approximate): 595
0002.560 (0) Table wp_terms: Total rows added: 595 in 0.02 seconds
0002.570 (0) Table wp_terms: finishing file (backup_2015-12-04-0133_CharmCat_13f9a8832008-db-table-wp_terms.table.gz - 7.7 Kb)
0002.592 (0) Table wp_woocommerce_order_itemmeta: Total expected rows (approximate): 151
0002.606 (0) Table wp_woocommerce_order_itemmeta: Total rows added: 151 in 0.01 seconds
0002.614 (0) Table wp_woocommerce_order_itemmeta: finishing file (backup_2015-12-04-0133_CharmCat_13f9a8832008-db-table-wp_woocommerce_order_itemmeta.table.gz - 2.9 Kb)
0002.637 (0) Table wp_woocommerce_termmeta: Total expected rows (approximate): 370
0002.654 (0) Table wp_woocommerce_termmeta: Total rows added: 370 in 0.01 seconds
0002.663 (0) Table wp_woocommerce_termmeta: finishing file (backup_2015-12-04-0133_CharmCat_13f9a8832008-db-table-wp_woocommerce_termmeta.table.gz - 2.8 Kb)
0002.688 (0) Table wp_WP_SEO_404_links: Total expected rows (approximate): 5036
0002.955 (0) Table wp_WP_SEO_404_links: Total rows added: 5020 in 0.26 seconds
0002.966 (0) Table wp_WP_SEO_404_links: finishing file (backup_2015-12-04-0133_CharmCat_13f9a8832008-db-table-wp_WP_SEO_404_links.table.gz - 120.9 Kb)
0002.992 (0) Table wp_WP_SEO_Cache: Total expected rows (approximate): 109
0003.004 (0) Table wp_WP_SEO_Cache: Total rows added: 118 in 0.00 seconds
0003.012 (0) Table wp_WP_SEO_Cache: finishing file (backup_2015-12-04-0133_CharmCat_13f9a8832008-db-table-wp_WP_SEO_Cache.table.gz - 0.7 Kb)
0003.035 (0) Table wp_WP_SEO_Redirection: Total expected rows (approximate): 40
0003.048 (0) Table wp_WP_SEO_Redirection: Total rows added: 40 in 0.00 seconds
0003.055 (0) Table wp_WP_SEO_Redirection: finishing file (backup_2015-12-04-0133_CharmCat_13f9a8832008-db-table-wp_WP_SEO_Redirection.table.gz - 1.4 Kb)
0003.077 (0) Table wp_WP_SEO_Redirection_LOG: Total expected rows (approximate): 128
0003.093 (0) Table wp_WP_SEO_Redirection_LOG: Total rows added: 128 in 0.01 seconds
0003.101 (0) Table wp_WP_SEO_Redirection_LOG: finishing file (backup_2015-12-04-0133_CharmCat_13f9a8832008-db-table-wp_WP_SEO_Redirection_LOG.table.gz - 4.1 Kb)
0003.133 (0) Table wp_amz_assets: Total expected rows (approximate): 105
0003.155 (0) Table wp_amz_assets: Total rows added: 105 in 0.01 seconds
0003.168 (0) Table wp_amz_assets: finishing file (backup_2015-12-04-0133_CharmCat_13f9a8832008-db-table-wp_amz_assets.table.gz - 5.5 Kb)
0003.193 (0) Table wp_amz_cross_sell: Total expected rows (approximate): 0
0003.203 (0) Table wp_amz_cross_sell: Total rows added: 0 in 0.00 seconds
0003.211 (0) Table wp_amz_cross_sell: finishing file (backup_2015-12-04-0133_CharmCat_13f9a8832008-db-table-wp_amz_cross_sell.table.gz - 0.3 Kb)
0003.233 (0) Table wp_amz_products: Total expected rows (approximate): 74
0003.247 (0) Table wp_amz_products: Total rows added: 74 in 0.01 seconds
0003.254 (0) Table wp_amz_products: finishing file (backup_2015-12-04-0133_CharmCat_13f9a8832008-db-table-wp_amz_products.table.gz - 2.8 Kb)
0003.276 (0) Table wp_amz_report_log: Total expected rows (approximate): 325
0003.358 (0) Table wp_amz_report_log: Total rows added: 325 in 0.08 seconds
0003.367 (0) Table wp_amz_report_log: finishing file (backup_2015-12-04-0133_CharmCat_13f9a8832008-db-table-wp_amz_report_log.table.gz - 125.7 Kb)
0003.389 (0) Table wp_duplicator: Total expected rows (approximate): 0
0003.400 (0) Table wp_duplicator: Total rows added: 1 in 0.00 seconds
0003.407 (0) Table wp_duplicator: finishing file (backup_2015-12-04-0133_CharmCat_13f9a8832008-db-table-wp_duplicator.table.gz - 0.5 Kb)
0003.431 (0) Table wp_duplicator_packages: Total expected rows (approximate): 2
0003.441 (0) Table wp_duplicator_packages: Total rows added: 2 in 0.00 seconds
0003.448 (0) Table wp_duplicator_packages: finishing file (backup_2015-12-04-0133_CharmCat_13f9a8832008-db-table-wp_duplicator_packages.table.gz - 1.4 Kb)
0003.473 (0) Table wp_ewwwio_images: Total expected rows (approximate): 2226
0003.556 (0) Table wp_ewwwio_images: Total rows added: 2174 in 0.07 seconds
0003.566 (0) Table wp_ewwwio_images: finishing file (backup_2015-12-04-0133_CharmCat_13f9a8832008-db-table-wp_ewwwio_images.table.gz - 44.1 Kb)
0003.593 (0) Table wp_gf_addon_feed: Total expected rows (approximate): 5
0003.604 (0) Table wp_gf_addon_feed: Total rows added: 5 in 0.00 seconds
0003.613 (0) Table wp_gf_addon_feed: finishing file (backup_2015-12-04-0133_CharmCat_13f9a8832008-db-table-wp_gf_addon_feed.table.gz - 1.3 Kb)
0003.637 (0) Table wp_gf_addon_payment_callback: Total expected rows (approximate): 0
0003.650 (0) Table wp_gf_addon_payment_callback: Total rows added: 0 in 0.00 seconds
0003.659 (0) Table wp_gf_addon_payment_callback: finishing file (backup_2015-12-04-0133_CharmCat_13f9a8832008-db-table-wp_gf_addon_payment_callback.table.gz - 0.3 Kb)
0003.692 (0) Table wp_gf_addon_payment_transaction: Total expected rows (approximate): 0
0003.705 (0) Table wp_gf_addon_payment_transaction: Total rows added: 0 in 0.00 seconds
0003.713 (0) Table wp_gf_addon_payment_transaction: finishing file (backup_2015-12-04-0133_CharmCat_13f9a8832008-db-table-wp_gf_addon_payment_transaction.table.gz - 0.4 Kb)
0003.736 (0) Table wp_linkcategorymeta: Total expected rows (approximate): 0
0003.747 (0) Table wp_linkcategorymeta: Total rows added: 0 in 0.00 seconds
0003.756 (0) Table wp_linkcategorymeta: finishing file (backup_2015-12-04-0133_CharmCat_13f9a8832008-db-table-wp_linkcategorymeta.table.gz - 0.3 Kb)
0003.783 (0) Table wp_rg_coupons: Total expected rows (approximate): 5
0003.802 (0) Table wp_rg_coupons: Total rows added: 5 in 0.01 seconds
0003.812 (0) Table wp_rg_coupons: finishing file (backup_2015-12-04-0133_CharmCat_13f9a8832008-db-table-wp_rg_coupons.table.gz - 0.6 Kb)
0003.841 (0) Table wp_rg_form: Total expected rows (approximate): 22
0003.851 (0) Table wp_rg_form: Total rows added: 22 in 0.00 seconds
0003.858 (0) Table wp_rg_form: finishing file (backup_2015-12-04-0133_CharmCat_13f9a8832008-db-table-wp_rg_form.table.gz - 0.8 Kb)
0003.882 (0) Table wp_rg_form_meta: Total expected rows (approximate): 17
0003.904 (0) Table wp_rg_form_meta: Total rows added: 22 in 0.01 seconds
0003.913 (0) Table wp_rg_form_meta: finishing file (backup_2015-12-04-0133_CharmCat_13f9a8832008-db-table-wp_rg_form_meta.table.gz - 17.6 Kb)
0003.941 (0) Table wp_rg_form_view: Total expected rows (approximate): 20273
0004.828 (0) Table wp_rg_form_view: Total rows added: 22639 in 0.88 seconds
0004.837 (0) Table wp_rg_form_view: finishing file (backup_2015-12-04-0133_CharmCat_13f9a8832008-db-table-wp_rg_form_view.table.gz - 242.4 Kb)
0004.859 (0) Table wp_rg_incomplete_submissions: Total expected rows (approximate): 0
0004.868 (0) Table wp_rg_incomplete_submissions: Total rows added: 0 in 0.00 seconds
0004.875 (0) Table wp_rg_incomplete_submissions: finishing file (backup_2015-12-04-0133_CharmCat_13f9a8832008-db-table-wp_rg_incomplete_submissions.table.gz - 0.4 Kb)
0004.898 (0) Table wp_rg_lead: Total expected rows (approximate): 158
0004.919 (0) Table wp_rg_lead: Total rows added: 164 in 0.01 seconds
0004.928 (0) Table wp_rg_lead: finishing file (backup_2015-12-04-0133_CharmCat_13f9a8832008-db-table-wp_rg_lead.table.gz - 4.3 Kb)
0004.954 (0) Table wp_rg_lead_detail: Total expected rows (approximate): 1545
0005.009 (0) Table wp_rg_lead_detail: Total rows added: 1647 in 0.05 seconds
0005.017 (0) Table wp_rg_lead_detail: finishing file (backup_2015-12-04-0133_CharmCat_13f9a8832008-db-table-wp_rg_lead_detail.table.gz - 14.8 Kb)
0005.042 (0) Table wp_rg_lead_detail_long: Total expected rows (approximate): 20
0005.053 (0) Table wp_rg_lead_detail_long: Total rows added: 20 in 0.00 seconds
0005.061 (0) Table wp_rg_lead_detail_long: finishing file (backup_2015-12-04-0133_CharmCat_13f9a8832008-db-table-wp_rg_lead_detail_long.table.gz - 5.1 Kb)
0005.090 (0) Table wp_rg_lead_meta: Total expected rows (approximate): 148
0005.112 (0) Table wp_rg_lead_meta: Total rows added: 154 in 0.01 seconds
0005.121 (0) Table wp_rg_lead_meta: finishing file (backup_2015-12-04-0133_CharmCat_13f9a8832008-db-table-wp_rg_lead_meta.table.gz - 6.1 Kb)
0005.145 (0) Table wp_rg_lead_notes: Total expected rows (approximate): 0
0005.157 (0) Table wp_rg_lead_notes: Total rows added: 0 in 0.00 seconds
0005.166 (0) Table wp_rg_lead_notes: finishing file (backup_2015-12-04-0133_CharmCat_13f9a8832008-db-table-wp_rg_lead_notes.table.gz - 0.4 Kb)
0005.190 (0) Table wp_wfBadLeechers: Total expected rows (approximate): 0
0005.203 (0) Table wp_wfBadLeechers: Total rows added: 0 in 0.00 seconds
0005.216 (0) Table wp_wfBadLeechers: finishing file (backup_2015-12-04-0133_CharmCat_13f9a8832008-db-table-wp_wfBadLeechers.table.gz - 0.3 Kb)
0005.244 (0) Table wp_wfBlockedIPLog: Total expected rows (approximate): 0
0005.255 (0) Table wp_wfBlockedIPLog: Total rows added: 0 in 0.00 seconds
0005.262 (0) Table wp_wfBlockedIPLog: finishing file (backup_2015-12-04-0133_CharmCat_13f9a8832008-db-table-wp_wfBlockedIPLog.table.gz - 0.3 Kb)
0005.285 (0) Table wp_wfBlocks: Total expected rows (approximate): 0
0005.295 (0) Table wp_wfBlocks: Total rows added: 0 in 0.00 seconds
0005.303 (0) Table wp_wfBlocks: finishing file (backup_2015-12-04-0133_CharmCat_13f9a8832008-db-table-wp_wfBlocks.table.gz - 0.4 Kb)
0005.327 (0) Table wp_wfBlocksAdv: Total expected rows (approximate): 0
0005.338 (0) Table wp_wfBlocksAdv: Total rows added: 0 in 0.00 seconds
0005.347 (0) Table wp_wfBlocksAdv: finishing file (backup_2015-12-04-0133_CharmCat_13f9a8832008-db-table-wp_wfBlocksAdv.table.gz - 0.3 Kb)
0005.370 (0) Table wp_wfConfig: Total expected rows (approximate): 128
0005.382 (0) Table wp_wfConfig: Total rows added: 128 in 0.01 seconds
0005.393 (0) Table wp_wfConfig: finishing file (backup_2015-12-04-0133_CharmCat_13f9a8832008-db-table-wp_wfConfig.table.gz - 3.5 Kb)
0005.419 (0) Table wp_wfCrawlers: Total expected rows (approximate): 15
0005.430 (0) Table wp_wfCrawlers: Total rows added: 16 in 0.00 seconds
0005.438 (0) Table wp_wfCrawlers: finishing file (backup_2015-12-04-0133_CharmCat_13f9a8832008-db-table-wp_wfCrawlers.table.gz - 0.7 Kb)
0005.464 (0) Table wp_wfFileMods: Total expected rows (approximate): 16774
0006.201 (0) Table wp_wfFileMods: Total rows added: 16682 in 0.73 seconds
0006.210 (0) Table wp_wfFileMods: finishing file (backup_2015-12-04-0133_CharmCat_13f9a8832008-db-table-wp_wfFileMods.table.gz - 874.1 Kb)
0006.235 (0) Table wp_wfHits: Total expected rows (approximate): 112
0006.253 (0) Table wp_wfHits: Total rows added: 116 in 0.01 seconds
0006.264 (0) Table wp_wfHits: finishing file (backup_2015-12-04-0133_CharmCat_13f9a8832008-db-table-wp_wfHits.table.gz - 5.4 Kb)
0006.286 (0) Table wp_wfHoover: Total expected rows (approximate): 3227
0006.389 (0) Table wp_wfHoover: Total rows added: 3231 in 0.10 seconds
0006.398 (0) Table wp_wfHoover: finishing file (backup_2015-12-04-0133_CharmCat_13f9a8832008-db-table-wp_wfHoover.table.gz - 51.6 Kb)
0006.425 (0) Table wp_wfIssues: Total expected rows (approximate): 0
0006.436 (0) Table wp_wfIssues: Total rows added: 0 in 0.00 seconds
0006.443 (0) Table wp_wfIssues: finishing file (backup_2015-12-04-0133_CharmCat_13f9a8832008-db-table-wp_wfIssues.table.gz - 0.3 Kb)
0006.467 (0) Table wp_wfLeechers: Total expected rows (approximate): 39
0006.477 (0) Table wp_wfLeechers: Total rows added: 42 in 0.00 seconds
0006.485 (0) Table wp_wfLeechers: finishing file (backup_2015-12-04-0133_CharmCat_13f9a8832008-db-table-wp_wfLeechers.table.gz - 0.7 Kb)
0006.508 (0) Table wp_wfLockedOut: Total expected rows (approximate): 0
0006.517 (0) Table wp_wfLockedOut: Total rows added: 0 in 0.00 seconds
0006.524 (0) Table wp_wfLockedOut: finishing file (backup_2015-12-04-0133_CharmCat_13f9a8832008-db-table-wp_wfLockedOut.table.gz - 0.3 Kb)
0006.546 (0) Table wp_wfLocs: Total expected rows (approximate): 0
0006.556 (0) Table wp_wfLocs: Total rows added: 1 in 0.00 seconds
0006.563 (0) Table wp_wfLocs: finishing file (backup_2015-12-04-0133_CharmCat_13f9a8832008-db-table-wp_wfLocs.table.gz - 0.5 Kb)
0006.586 (0) Table wp_wfLogins: Total expected rows (approximate): 4
0006.598 (0) Table wp_wfLogins: Total rows added: 5 in 0.00 seconds
0006.606 (0) Table wp_wfLogins: finishing file (backup_2015-12-04-0133_CharmCat_13f9a8832008-db-table-wp_wfLogins.table.gz - 0.6 Kb)
0006.631 (0) Table wp_wfNet404s: Total expected rows (approximate): 0
0006.642 (0) Table wp_wfNet404s: Total rows added: 0 in 0.00 seconds
0006.653 (0) Table wp_wfNet404s: finishing file (backup_2015-12-04-0133_CharmCat_13f9a8832008-db-table-wp_wfNet404s.table.gz - 0.3 Kb)
0006.682 (0) Table wp_wfReverseCache: Total expected rows (approximate): 15
0006.693 (0) Table wp_wfReverseCache: Total rows added: 17 in 0.00 seconds
0006.701 (0) Table wp_wfReverseCache: finishing file (backup_2015-12-04-0133_CharmCat_13f9a8832008-db-table-wp_wfReverseCache.table.gz - 0.6 Kb)
0006.724 (0) Table wp_wfScanners: Total expected rows (approximate): 8
0006.735 (0) Table wp_wfScanners: Total rows added: 10 in 0.00 seconds
0006.743 (0) Table wp_wfScanners: finishing file (backup_2015-12-04-0133_CharmCat_13f9a8832008-db-table-wp_wfScanners.table.gz - 0.5 Kb)
0006.767 (0) Table wp_wfStatus: Total expected rows (approximate): 202
0006.783 (0) Table wp_wfStatus: Total rows added: 209 in 0.01 seconds
0006.791 (0) Table wp_wfStatus: finishing file (backup_2015-12-04-0133_CharmCat_13f9a8832008-db-table-wp_wfStatus.table.gz - 4.2 Kb)
0006.824 (0) Table wp_wfThrottleLog: Total expected rows (approximate): 0
0006.836 (0) Table wp_wfThrottleLog: Total rows added: 0 in 0.00 seconds
0006.843 (0) Table wp_wfThrottleLog: finishing file (backup_2015-12-04-0133_CharmCat_13f9a8832008-db-table-wp_wfThrottleLog.table.gz - 0.3 Kb)
0006.867 (0) Table wp_wfVulnScanners: Total expected rows (approximate): 0
0006.877 (0) Table wp_wfVulnScanners: Total rows added: 0 in 0.00 seconds
0006.885 (0) Table wp_wfVulnScanners: finishing file (backup_2015-12-04-0133_CharmCat_13f9a8832008-db-table-wp_wfVulnScanners.table.gz - 0.3 Kb)
0006.915 (0) Table wp_woocommerce_api_keys: Total expected rows (approximate): 0
0006.927 (0) Table wp_woocommerce_api_keys: Total rows added: 0 in 0.00 seconds
0006.935 (0) Table wp_woocommerce_api_keys: finishing file (backup_2015-12-04-0133_CharmCat_13f9a8832008-db-table-wp_woocommerce_api_keys.table.gz - 0.4 Kb)
0006.959 (0) Table wp_woocommerce_attribute_taxonomies: Total expected rows (approximate): 9
0006.969 (0) Table wp_woocommerce_attribute_taxonomies: Total rows added: 9 in 0.00 seconds
0006.978 (0) Table wp_woocommerce_attribute_taxonomies: finishing file (backup_2015-12-04-0133_CharmCat_13f9a8832008-db-table-wp_woocommerce_attribute_taxonomies.table.gz - 0.5 Kb)
0007.001 (0) Table wp_woocommerce_downloadable_product_permissions: Total expected rows (approximate): 0
0007.011 (0) Table wp_woocommerce_downloadable_product_permissions: Total rows added: 0 in 0.00 seconds
0007.019 (0) Table wp_woocommerce_downloadable_product_permissions: finishing file (backup_2015-12-04-0133_CharmCat_13f9a8832008-db-table-wp_woocommerce_downloadable_product_permissions.table.gz - 0.4 Kb)
0007.044 (0) Table wp_woocommerce_order_items: Total expected rows (approximate): 14
0007.057 (0) Table wp_woocommerce_order_items: Total rows added: 14 in 0.00 seconds
0007.066 (0) Table wp_woocommerce_order_items: finishing file (backup_2015-12-04-0133_CharmCat_13f9a8832008-db-table-wp_woocommerce_order_items.table.gz - 0.6 Kb)
0007.091 (0) Table wp_woocommerce_tax_rate_locations: Total expected rows (approximate): 0
0007.101 (0) Table wp_woocommerce_tax_rate_locations: Total rows added: 0 in 0.00 seconds
0007.108 (0) Table wp_woocommerce_tax_rate_locations: finishing file (backup_2015-12-04-0133_CharmCat_13f9a8832008-db-table-wp_woocommerce_tax_rate_locations.table.gz - 0.3 Kb)
0007.134 (0) Table wp_woocommerce_tax_rates: Total expected rows (approximate): 0
0007.146 (0) Table wp_woocommerce_tax_rates: Total rows added: 1 in 0.00 seconds
0007.153 (0) Table wp_woocommerce_tax_rates: finishing file (backup_2015-12-04-0133_CharmCat_13f9a8832008-db-table-wp_woocommerce_tax_rates.table.gz - 0.4 Kb)
0007.178 (0) Table wp_wprc_cached_requests: Total expected rows (approximate): 0
0007.189 (0) Table wp_wprc_cached_requests: Total rows added: 0 in 0.00 seconds
0007.198 (0) Table wp_wprc_cached_requests: finishing file (backup_2015-12-04-0133_CharmCat_13f9a8832008-db-table-wp_wprc_cached_requests.table.gz - 0.3 Kb)
0007.226 (0) Table wp_wprc_extension_types: Total expected rows (approximate): 2
0007.238 (0) Table wp_wprc_extension_types: Total rows added: 2 in 0.00 seconds
0007.246 (0) Table wp_wprc_extension_types: finishing file (backup_2015-12-04-0133_CharmCat_13f9a8832008-db-table-wp_wprc_extension_types.table.gz - 0.4 Kb)
0007.271 (0) Table wp_wprc_extensions: Total expected rows (approximate): 21
0007.285 (0) Table wp_wprc_extensions: Total rows added: 21 in 0.01 seconds
0007.295 (0) Table wp_wprc_extensions: finishing file (backup_2015-12-04-0133_CharmCat_13f9a8832008-db-table-wp_wprc_extensions.table.gz - 1 Kb)
0007.324 (0) Table wp_wprc_repositories: Total expected rows (approximate): 5
0007.338 (0) Table wp_wprc_repositories: Total rows added: 5 in 0.01 seconds
0007.349 (0) Table wp_wprc_repositories: finishing file (backup_2015-12-04-0133_CharmCat_13f9a8832008-db-table-wp_wprc_repositories.table.gz - 1.1 Kb)
0007.374 (0) Table wp_wprc_repositories_relationships: Total expected rows (approximate): 6
0007.385 (0) Table wp_wprc_repositories_relationships: Total rows added: 6 in 0.00 seconds
0007.393 (0) Table wp_wprc_repositories_relationships: finishing file (backup_2015-12-04-0133_CharmCat_13f9a8832008-db-table-wp_wprc_repositories_relationships.table.gz - 0.3 Kb)
0007.416 (0) backup_2015-12-04-0133_CharmCat_13f9a8832008-db-table-wp_options.table.gz (1/69): adding to final database dump
0007.457 (0) backup_2015-12-04-0133_CharmCat_13f9a8832008-db-table-wp_users.table.gz (2/69): adding to final database dump
0007.467 (0) backup_2015-12-04-0133_CharmCat_13f9a8832008-db-table-wp_usermeta.table.gz (3/69): adding to final database dump
0007.478 (0) backup_2015-12-04-0133_CharmCat_13f9a8832008-db-table-wp_commentmeta.table.gz (4/69): adding to final database dump
0007.488 (0) backup_2015-12-04-0133_CharmCat_13f9a8832008-db-table-wp_comments.table.gz (5/69): adding to final database dump
0007.498 (0) backup_2015-12-04-0133_CharmCat_13f9a8832008-db-table-wp_links.table.gz (6/69): adding to final database dump
0007.506 (0) backup_2015-12-04-0133_CharmCat_13f9a8832008-db-table-wp_postmeta.table.gz (7/69): adding to final database dump
0007.660 (0) backup_2015-12-04-0133_CharmCat_13f9a8832008-db-table-wp_posts.table.gz (8/69): adding to final database dump
0007.713 (0) backup_2015-12-04-0133_CharmCat_13f9a8832008-db-table-wp_term_relationships.table.gz (9/69): adding to final database dump
0007.729 (0) backup_2015-12-04-0133_CharmCat_13f9a8832008-db-table-wp_term_taxonomy.table.gz (10/69): adding to final database dump
0007.739 (0) backup_2015-12-04-0133_CharmCat_13f9a8832008-db-table-wp_terms.table.gz (11/69): adding to final database dump
0007.749 (0) backup_2015-12-04-0133_CharmCat_13f9a8832008-db-table-wp_woocommerce_order_itemmeta.table.gz (12/69): adding to final database dump
0007.758 (0) backup_2015-12-04-0133_CharmCat_13f9a8832008-db-table-wp_woocommerce_termmeta.table.gz (13/69): adding to final database dump
0007.767 (0) backup_2015-12-04-0133_CharmCat_13f9a8832008-db-table-wp_WP_SEO_404_links.table.gz (14/69): adding to final database dump
0007.803 (0) backup_2015-12-04-0133_CharmCat_13f9a8832008-db-table-wp_WP_SEO_Cache.table.gz (15/69): adding to final database dump
0007.811 (0) backup_2015-12-04-0133_CharmCat_13f9a8832008-db-table-wp_WP_SEO_Redirection.table.gz (16/69): adding to final database dump
0007.819 (0) backup_2015-12-04-0133_CharmCat_13f9a8832008-db-table-wp_WP_SEO_Redirection_LOG.table.gz (17/69): adding to final database dump
0007.828 (0) backup_2015-12-04-0133_CharmCat_13f9a8832008-db-table-wp_amz_assets.table.gz (18/69): adding to final database dump
0007.836 (0) backup_2015-12-04-0133_CharmCat_13f9a8832008-db-table-wp_amz_cross_sell.table.gz (19/69): adding to final database dump
0007.844 (0) backup_2015-12-04-0133_CharmCat_13f9a8832008-db-table-wp_amz_products.table.gz (20/69): adding to final database dump
0007.859 (0) backup_2015-12-04-0133_CharmCat_13f9a8832008-db-table-wp_amz_report_log.table.gz (21/69): adding to final database dump
0007.951 (0) backup_2015-12-04-0133_CharmCat_13f9a8832008-db-table-wp_duplicator.table.gz (22/69): adding to final database dump
0007.963 (0) backup_2015-12-04-0133_CharmCat_13f9a8832008-db-table-wp_duplicator_packages.table.gz (23/69): adding to final database dump
0007.972 (0) backup_2015-12-04-0133_CharmCat_13f9a8832008-db-table-wp_ewwwio_images.table.gz (24/69): adding to final database dump
0007.991 (0) backup_2015-12-04-0133_CharmCat_13f9a8832008-db-table-wp_gf_addon_feed.table.gz (25/69): adding to final database dump
0007.999 (0) backup_2015-12-04-0133_CharmCat_13f9a8832008-db-table-wp_gf_addon_payment_callback.table.gz (26/69): adding to final database dump
0008.007 (0) backup_2015-12-04-0133_CharmCat_13f9a8832008-db-table-wp_gf_addon_payment_transaction.table.gz (27/69): adding to final database dump
0008.014 (0) backup_2015-12-04-0133_CharmCat_13f9a8832008-db-table-wp_linkcategorymeta.table.gz (28/69): adding to final database dump
0008.023 (0) backup_2015-12-04-0133_CharmCat_13f9a8832008-db-table-wp_rg_coupons.table.gz (29/69): adding to final database dump
0008.032 (0) backup_2015-12-04-0133_CharmCat_13f9a8832008-db-table-wp_rg_form.table.gz (30/69): adding to final database dump
0008.039 (0) backup_2015-12-04-0133_CharmCat_13f9a8832008-db-table-wp_rg_form_meta.table.gz (31/69): adding to final database dump
0008.056 (0) backup_2015-12-04-0133_CharmCat_13f9a8832008-db-table-wp_rg_form_view.table.gz (32/69): adding to final database dump
0008.164 (0) backup_2015-12-04-0133_CharmCat_13f9a8832008-db-table-wp_rg_incomplete_submissions.table.gz (33/69): adding to final database dump
0008.173 (0) backup_2015-12-04-0133_CharmCat_13f9a8832008-db-table-wp_rg_lead.table.gz (34/69): adding to final database dump
0008.182 (0) backup_2015-12-04-0133_CharmCat_13f9a8832008-db-table-wp_rg_lead_detail.table.gz (35/69): adding to final database dump
0008.194 (0) backup_2015-12-04-0133_CharmCat_13f9a8832008-db-table-wp_rg_lead_detail_long.table.gz (36/69): adding to final database dump
0008.202 (0) backup_2015-12-04-0133_CharmCat_13f9a8832008-db-table-wp_rg_lead_meta.table.gz (37/69): adding to final database dump
0008.212 (0) backup_2015-12-04-0133_CharmCat_13f9a8832008-db-table-wp_rg_lead_notes.table.gz (38/69): adding to final database dump
0008.219 (0) backup_2015-12-04-0133_CharmCat_13f9a8832008-db-table-wp_wfBadLeechers.table.gz (39/69): adding to final database dump
0008.226 (0) backup_2015-12-04-0133_CharmCat_13f9a8832008-db-table-wp_wfBlockedIPLog.table.gz (40/69): adding to final database dump
0008.234 (0) backup_2015-12-04-0133_CharmCat_13f9a8832008-db-table-wp_wfBlocks.table.gz (41/69): adding to final database dump
0008.241 (0) backup_2015-12-04-0133_CharmCat_13f9a8832008-db-table-wp_wfBlocksAdv.table.gz (42/69): adding to final database dump
0008.248 (0) backup_2015-12-04-0133_CharmCat_13f9a8832008-db-table-wp_wfConfig.table.gz (43/69): adding to final database dump
0008.255 (0) backup_2015-12-04-0133_CharmCat_13f9a8832008-db-table-wp_wfCrawlers.table.gz (44/69): adding to final database dump
0008.263 (0) backup_2015-12-04-0133_CharmCat_13f9a8832008-db-table-wp_wfFileMods.table.gz (45/69): adding to final database dump
0008.383 (0) backup_2015-12-04-0133_CharmCat_13f9a8832008-db-table-wp_wfHits.table.gz (46/69): adding to final database dump
0008.393 (0) backup_2015-12-04-0133_CharmCat_13f9a8832008-db-table-wp_wfHoover.table.gz (47/69): adding to final database dump
0008.415 (0) backup_2015-12-04-0133_CharmCat_13f9a8832008-db-table-wp_wfIssues.table.gz (48/69): adding to final database dump
0008.423 (0) backup_2015-12-04-0133_CharmCat_13f9a8832008-db-table-wp_wfLeechers.table.gz (49/69): adding to final database dump
0008.431 (0) backup_2015-12-04-0133_CharmCat_13f9a8832008-db-table-wp_wfLockedOut.table.gz (50/69): adding to final database dump
0008.439 (0) backup_2015-12-04-0133_CharmCat_13f9a8832008-db-table-wp_wfLocs.table.gz (51/69): adding to final database dump
0008.447 (0) backup_2015-12-04-0133_CharmCat_13f9a8832008-db-table-wp_wfLogins.table.gz (52/69): adding to final database dump
0008.455 (0) backup_2015-12-04-0133_CharmCat_13f9a8832008-db-table-wp_wfNet404s.table.gz (53/69): adding to final database dump
0008.463 (0) backup_2015-12-04-0133_CharmCat_13f9a8832008-db-table-wp_wfReverseCache.table.gz (54/69): adding to final database dump
0008.471 (0) backup_2015-12-04-0133_CharmCat_13f9a8832008-db-table-wp_wfScanners.table.gz (55/69): adding to final database dump
0008.481 (0) backup_2015-12-04-0133_CharmCat_13f9a8832008-db-table-wp_wfStatus.table.gz (56/69): adding to final database dump
0008.490 (0) backup_2015-12-04-0133_CharmCat_13f9a8832008-db-table-wp_wfThrottleLog.table.gz (57/69): adding to final database dump
0008.497 (0) backup_2015-12-04-0133_CharmCat_13f9a8832008-db-table-wp_wfVulnScanners.table.gz (58/69): adding to final database dump
0008.509 (0) backup_2015-12-04-0133_CharmCat_13f9a8832008-db-table-wp_woocommerce_api_keys.table.gz (59/69): adding to final database dump
0008.519 (0) backup_2015-12-04-0133_CharmCat_13f9a8832008-db-table-wp_woocommerce_attribute_taxonomies.table.gz (60/69): adding to final database dump
0008.528 (0) backup_2015-12-04-0133_CharmCat_13f9a8832008-db-table-wp_woocommerce_downloadable_product_permissions.table.gz (61/69): adding to final database dump
0008.536 (0) backup_2015-12-04-0133_CharmCat_13f9a8832008-db-table-wp_woocommerce_order_items.table.gz (62/69): adding to final database dump
0008.544 (0) backup_2015-12-04-0133_CharmCat_13f9a8832008-db-table-wp_woocommerce_tax_rate_locations.table.gz (63/69): adding to final database dump
0008.554 (0) backup_2015-12-04-0133_CharmCat_13f9a8832008-db-table-wp_woocommerce_tax_rates.table.gz (64/69): adding to final database dump
0008.564 (0) backup_2015-12-04-0133_CharmCat_13f9a8832008-db-table-wp_wprc_cached_requests.table.gz (65/69): adding to final database dump
0008.572 (0) backup_2015-12-04-0133_CharmCat_13f9a8832008-db-table-wp_wprc_extension_types.table.gz (66/69): adding to final database dump
0008.581 (0) backup_2015-12-04-0133_CharmCat_13f9a8832008-db-table-wp_wprc_extensions.table.gz (67/69): adding to final database dump
0008.589 (0) backup_2015-12-04-0133_CharmCat_13f9a8832008-db-table-wp_wprc_repositories.table.gz (68/69): adding to final database dump
0008.597 (0) backup_2015-12-04-0133_CharmCat_13f9a8832008-db-table-wp_wprc_repositories_relationships.table.gz (69/69): adding to final database dump
0008.606 (0) backup_2015-12-04-0133_CharmCat_13f9a8832008-db.gz: finished writing out complete database file (2344 Kb)
0008.646 (0) Total database tables backed up: 69 (backup_2015-12-04-0133_CharmCat_13f9a8832008-db.gz, size: 2432521, checksum (SHA1): 6c1bc6c5c5af6336905fc8c5bde335ee57d784ab)
0008.661 (0) Saving backup history
0008.685 (0) backup_2015-12-04-0133_CharmCat_13f9a8832008-db.gz: db: This file has not yet been successfully uploaded: will queue
0008.701 (0) Requesting upload of the files that have not yet been successfully uploaded (1)
0008.725 (0) Cloud backup selection (1/1): googledrive (last)
0008.733 (0) Beginning dispatch of backup to remote (googledrive)
0008.743 (0) Google Drive: requesting access token: client_id=986192926263-jt0s0or02etdohca1cloc4cor7nbl11k.apps.googleusercontent.com
0008.823 (0) Google Drive: successfully obtained access token
0009.150 (0) Google Drive quota usage: used=1831.7 Mb, total=15360 Mb, available=13528.3 Mb
0009.158 (0) backup_2015-12-04-0133_CharmCat_13f9a8832008-db.gz: Attempting to upload to Google Drive (into folder id: 0B1ogqp9E93K1TnJsN0JuSzhqMmc)
0009.565 (0) Googledrive chunked upload: 43.1 % uploaded (1048576)
0009.703 (0) Googledrive chunked upload: 86.2 % uploaded (2097152)
0010.660 (0) Googledrive chunked upload: 100 % uploaded (2097152)
0010.683 (0) OK: Archive backup_2015-12-04-0133_CharmCat_13f9a8832008-db.gz uploaded to Google Drive in 1.52 seconds
0010.697 (0) Recording as successfully uploaded: backup_2015-12-04-0133_CharmCat_13f9a8832008-db.gz (cbb36ab787f94e317af9c268fc7de8f0)
0010.724 (0) Deleting local file: backup_2015-12-04-0133_CharmCat_13f9a8832008-db.gz: OK
0010.740 (0) Retain: beginning examination of existing backup sets; user setting: retain_files=2, retain_db=3
0010.748 (0) Number of backup sets in history: 6
0010.756 (0) Examining backup set with datestamp: 1449210798 (Dec 04 2015 06:33:18)
0010.762 (0) 1449210798: this backup set remains non-empty (0/1); will retain in history
0010.769 (0) Examining backup set with datestamp: 1449125881 (Dec 03 2015 06:58:01)
0010.776 (0) 1449125881: this backup set remains non-empty (0/1); will retain in history
0010.783 (0) Examining backup set with datestamp: 1449125798 (Dec 03 2015 06:56:38)
0010.790 (0) 1449125798: this backup set remains non-empty (1/0); will retain in history
0010.797 (0) Examining backup set with datestamp: 1449037752 (Dec 02 2015 06:29:12)
0010.803 (0) 1449037752: this backup set remains non-empty (0/1); will retain in history
0010.810 (0) Examining backup set with datestamp: 1448951300 (Dec 01 2015 06:28:20)
0010.816 (0) 1448951300: db: this set includes a database (backup_2015-12-01-0128_CharmCat_a723e4149527-db.gz); db count is now 4
0010.823 (0) 1448951300: db: over retain limit (3); will delete this database
0010.829 (0) Delete file: backup_2015-12-01-0128_CharmCat_a723e4149527-db.gz, service=googledrive
0011.681 (0) backup_2015-12-01-0128_CharmCat_a723e4149527-db.gz: Deletion successful
0011.699 (0) 1448951300: this backup set is now empty; will remove from history
0011.706 (0) 1448951300: deleting log file (log.a723e4149527.txt)
0011.713 (0) Examining backup set with datestamp: 1448519481 (Nov 26 2015 06:31:21)
0011.720 (0) 1448519481: this backup set remains non-empty (1/0); will retain in history
0011.726 (0) Retain: saving new backup history (sets now: 5) and finishing retain operation
0011.748 (0) Resume backup (13f9a8832008, 0): finish run
0011.762 (0) Decremented the semaphore (d) by 1
0011.769 (0) Semaphore (d) unlocked
0011.775 (0) There were no errors in the uploads, so the 'resume' event (1) is being unscheduled
0011.798 (0) No email will/can be sent - the user has not configured an email address.
0011.805 (0) The backup apparently succeeded and is now complete
